%YAML 1.1
%TAG !u! tag:unity3d.com,2011:
--- !u!1001 &295313795555458713
PrefabInstance:
  m_ObjectHideFlags: 0
  serializedVersion: 2
  m_Modification:
    serializedVersion: 3
    m_TransformParent: {fileID: 0}
    m_Modifications:
    - target: {fileID: 3018939739058757728, guid: 043f71d420efe9d4aac69605b38b6b52, type: 3}
      propertyPath: m_LocalPosition.x
      value: 0
      objectReference: {fileID: 0}
    - target: {fileID: 3018939739058757728, guid: 043f71d420efe9d4aac69605b38b6b52, type: 3}
      propertyPath: m_LocalPosition.y
      value: 0
      objectReference: {fileID: 0}
    - target: {fileID: 3018939739058757728, guid: 043f71d420efe9d4aac69605b38b6b52, type: 3}
      propertyPath: m_LocalPosition.z
      value: 0
      objectReference: {fileID: 0}
    - target: {fileID: 3018939739058757728, guid: 043f71d420efe9d4aac69605b38b6b52, type: 3}
      propertyPath: m_LocalRotation.w
      value: 1
      objectReference: {fileID: 0}
    - target: {fileID: 3018939739058757728, guid: 043f71d420efe9d4aac69605b38b6b52, type: 3}
      propertyPath: m_LocalRotation.x
      value: 0
      objectReference: {fileID: 0}
    - target: {fileID: 3018939739058757728, guid: 043f71d420efe9d4aac69605b38b6b52, type: 3}
      propertyPath: m_LocalRotation.y
      value: 0
      objectReference: {fileID: 0}
    - target: {fileID: 3018939739058757728, guid: 043f71d420efe9d4aac69605b38b6b52, type: 3}
      propertyPath: m_LocalRotation.z
      value: 0
      objectReference: {fileID: 0}
    - target: {fileID: 3018939739058757728, guid: 043f71d420efe9d4aac69605b38b6b52, type: 3}
      propertyPath: m_LocalEulerAnglesHint.x
      value: 0
      objectReference: {fileID: 0}
    - target: {fileID: 3018939739058757728, guid: 043f71d420efe9d4aac69605b38b6b52, type: 3}
      propertyPath: m_LocalEulerAnglesHint.y
      value: 0
      objectReference: {fileID: 0}
    - target: {fileID: 3018939739058757728, guid: 043f71d420efe9d4aac69605b38b6b52, type: 3}
      propertyPath: m_LocalEulerAnglesHint.z
      value: 0
      objectReference: {fileID: 0}
    - target: {fileID: 5949312363673197822, guid: 043f71d420efe9d4aac69605b38b6b52, type: 3}
      propertyPath: m_fPointsOnDestroy
      value: 70
      objectReference: {fileID: 0}
    - target: {fileID: 6371175097017348034, guid: 043f71d420efe9d4aac69605b38b6b52, type: 3}
      propertyPath: m_Name
      value: BrickBlue
      objectReference: {fileID: 0}
    - target: {fileID: 7501304927656672592, guid: 043f71d420efe9d4aac69605b38b6b52, type: 3}
      propertyPath: m_Sprite
      value: 
      objectReference: {fileID: 191733629, guid: 08c96d9c2070b6245a0cf6029579426b, type: 3}
    m_RemovedComponents: []
    m_RemovedGameObjects: []
    m_AddedGameObjects: []
    m_AddedComponents: []
  m_SourcePrefab: {fileID: 100100000, guid: 043f71d420efe9d4aac69605b38b6b52, type: 3}
